Other European countries;language
Andorra;eng
Armenia;eng
Azerbaijan;eng
Belarus;eng
Georgia;eng
Iceland;eng
Liechtenstein;eng
Moldova;eng
Monaco;eng
Norway;eng
Russia;eng
San Marino;eng
Switzerland;eng
Ukraine;eng
United Kingdom;eng
Vatican City;eng
Andorra;deu
Armenien;deu
Aserbaidschan;deu
Georgien;deu
Island;deu
Liechtenstein;deu
Moldawien;deu
Monaco;deu
Norwegen;deu
Russland;deu
San Marino;deu
Schweiz;deu
Ukraine;deu
Vatikanstadt;deu
Vereinigtes Königreich;deu
Weißrussland;deu
